array (
  'field_names[0]' => 'email',
  'field_names[1]' => 'email_list_ids',
  'field_names[2]' => 'phone',
  'field_names[3]' => 'phone_list_ids',
  'field_names[4]' => 'Name',
  'field_names[5]' => 'date_registr',
  'field_names[6]' => 'last_order',
  'field_names[7]' => 'registration',
  'field_names[8]' => 'podpiska',
  'field_names[9]' => 'id_cms',
  'data[0][0]' => 'chuck-kurbob@i.ua',
  'data[0][1]' => 5714110,
  'data[0][2]' => '+380661033368',
  'data[0][3]' => 5714110,
  'data[0][4]' => 'Павел',
  'data[0][5]' => '2017-12-25 23:28:50',
  'data[0][6]' => '',
  'data[0][7]' => 1,
  'data[0][8]' => 'Не подписан',
  'data[0][9]' => '10175',
  'double_option' => 1,
  'overwrite_tags' => 1,
  'overwrite_lists' => 1,
)