название~родитель~ид;
Каталог~0~10;
Собакам~10~13;
Кошкам~10~14;
Сухой корм~14~15;
Уход за шерстью~13~16;
Лежанки и домики~14~17;
Средства от блох и клещей~14~18;
Лечебный корм~14~19;
Сухой корм~13~57;
Средства от глистов~13~24;
Консервы~14~25;
Рыбкам~10~26;
Птицам~10~27;
Грызунам~10~28;
Лакомства~13~29;
Заменители молока~13~30;
Расчески, щетки и фурминаторы~13~31;
Машинки для стрижки~13~32;
Ножницы~13~33;
Ошейники~13~34;
Поводки, шлеи~13~35;
Игрушки~13~36;
Миски и поилки~13~37;
Намордники~13~39;
Средства от блох и клещей~13~40;
Средства для ушей~13~41;
Средства для глаз~13~43;
Витамины и добавки~13~44;
Памперсы и трусы~13~46;
Туалеты~13~47;
Лежанки и домики~13~48;
Будки~13~49;
Переноски и сумки~13~50;
Вольеры и клетки~13~51;
Дверцы для собак~13~52;
Манежи~13~53;
Одежда~13~54;
Обувь~13~55;
Консервы~13~58;
Лечебный корм~13~59;
Заменитель молока~14~217;
Свистки и кликеры~13~760;
Дверцы для кошек~14~802;
Одежда~14~477;
Уход за шерстью~14~478;
Наполнители~14~479;
Миски и поилки~14~480;
Корм~26~481;
Аквариумы~26~482;
Корм~27~483;
Лакомства~27~484;
Корм~28~485;
Лакомства~28~486;
Адресники и брелки~13~712;
Аксессуры для авто~13~706;
Адресники и брелки~14~716;
Рулетки~13~730;
Лакомства~14~759;
Ветеринарные воротники~13~761;
Когтерезы~13~776;
Витамины и добавки~14~777;
Уход за зубами и полостью рта~13~769;
Пеленки~13~770;
Духи и одеколоны~13~772;
Удаление запаха и пятен~13~773;
Рюкзаки для собак~13~775;
Средства для лап~13~778;
Средства для кожи и шерсти~13~779;
Средства от глистов~14~781;
Средства для глаз~14~782;
Средства для ушей~14~783;
Средства для кожи и шерсти~14~784;
Средства для лап~14~785;
Ветеринарные воротники~14~787;
Расчески, щетки и фурминаторы~14~788;
Машинки для стрижки~14~789;
Ножницы~14~790;
Когтерезы~14~791;
Уход за зубами и полостью рта~14~792;
Туалеты~14~793;
Удаление запаха и пятен~14~794;
Духи и одеколоны~14~795;
Пеленки~14~796;
Памперсы и трусы~14~797;
Поводки, шлеи~14~798;
Ошейники~14~799;
Игрушки~14~800;
Переноски и сумки~14~801;
Обувь~14~804;
Витамины и добавки~27~805;
Средства от паразитов~27~806;
Наполнители и подстилки для клеток~27~807;
Клетки и вольеры~27~808;
Кормушки и поилки~27~809;
Аксессуары для клеток~27~810;
Витамины и добавки~28~811;
Клетки~28~812;
Игрушки~27~813;
Игрушки~28~814;
Косметика для шерсти~28~815;
Туалеты~28~817;
Средства от паразитов~28~818;
Кормушки для рыб~26~819;
Уход за растениями~26~820;
Фильтры~26~821;
Терморегуляторы для аквариумов~26~822;
Компрессоры и распылители~26~823;
Декорации для аквариума~26~824;
Витамины и добавки~26~825;
Переноски~28~826;
Домики и лежанки~28~827;
Прогулочные шары~28~828;
Поилки~28~829;
Наполнители и подстилки для клеток~28~830;
Гамаки~28~831;
Песок для шиншилл~28~832;
Купалки для шиншилл~28~833;
Туннели, лабиринты~28~834;
Одежда~28~835;
Поводки, шлеи~28~836;
Кормушки и миски~28~837;
Аксессуары для клеток~28~838;
Светильники и лампы~26~840;
Тумбы~26~841;
Прочее оборудование для аквариумов~26~842;
Купалки для попугаев~27~843;
Домики~27~844;
Жердочки~27~845;
Колеса для грызунов~28~846;
Когтеточки~14~859;
Термометры и гигрометры~26~881;
Отсадники для мальков~26~882;
Субстраты для террариумов~26~883;
Термометры для аквариумов~26~884;
Расчески и щетки~28~908;
Когтерезы~28~909;
Качели~27~1063;
Лестницы~27~1064;
Хорькам~10~1148;
Уход за шерстью~1148~1149;
Лакомства~1148~1150;
Витамины и добавки~1148~1151;
Духи и одеколоны~1148~1152;
Корм~1148~1153;
Средства от паразитов~1148~1154;
Удаление запаха и пятен~1148~1171;
Коррекция поведения~14~1196;
Коррекция поведения~13~1197;
Сумки для лакомств, коврики, аксессуары~13~1348;
Сумки для лакомств, коврики, аксессуары~14~1349;
Наполнители и подстилки для клеток~1148~2064;
Лечебный корм~28~2165;
Лечебный корм~1148~2166;
Рулетки~14~2235;
Удаление запаха и пятен~28~2562;
Удаление запаха и пятен~27~2563;
Импорт товаров~14~2950;
Уход за водой~26~10679;
