<svg width="16" height="15" viewBox="0 0 16 15" fill="none" xmlns="http://www.w3.org/2000/svg">
<path d="M8.01562 6.48438H11.5156C11.6406 6.48438 11.7656 6.39062 11.7656 6.23438V5.73438C11.7656 5.60938 11.6406 5.48438 11.5156 5.48438H8.01562C7.85938 5.48438 7.76562 5.60938 7.76562 5.73438V6.23438C7.76562 6.39062 7.85938 6.48438 8.01562 6.48438ZM8.01562 9.48438H13.5156C13.6406 9.48438 13.7656 9.39062 13.7656 9.23438V8.73438C13.7656 8.60938 13.6406 8.48438 13.5156 8.48438H8.01562C7.85938 8.48438 7.76562 8.60938 7.76562 8.73438V9.23438C7.76562 9.39062 7.85938 9.48438 8.01562 9.48438ZM8.01562 3.48438H9.51562C9.64062 3.48438 9.76562 3.39062 9.76562 3.23438V2.73438C9.76562 2.60938 9.64062 2.48438 9.51562 2.48438H8.01562C7.85938 2.48438 7.76562 2.60938 7.76562 2.73438V3.23438C7.76562 3.39062 7.85938 3.48438 8.01562 3.48438ZM15.5156 11.4844H8.01562C7.85938 11.4844 7.76562 11.6094 7.76562 11.7344V12.2344C7.76562 12.3906 7.85938 12.4844 8.01562 12.4844H15.5156C15.6406 12.4844 15.7656 12.3906 15.7656 12.2344V11.7344C15.7656 11.6094 15.6406 11.4844 15.5156 11.4844ZM3.51562 0.609375C3.45312 0.546875 3.32812 0.515625 3.26562 0.515625C3.17188 0.515625 3.04688 0.546875 2.98438 0.609375L0.359375 3.17188C0.296875 3.23438 0.234375 3.35938 0.234375 3.45312C0.234375 3.54688 0.296875 3.64062 0.359375 3.70312L0.546875 3.89062C0.609375 3.95312 0.703125 4.01562 0.796875 4.01562C0.890625 4.01562 1.01562 3.95312 1.07812 3.89062L2.76562 2.23438V14.2344C2.76562 14.3906 2.85938 14.4844 3.01562 14.4844H3.51562C3.64062 14.4844 3.76562 14.3906 3.76562 14.2344V2.26562L5.42188 3.89062C5.48438 3.95312 5.60938 3.98438 5.70312 3.98438C5.79688 3.98438 5.89062 3.95312 5.95312 3.89062L6.14062 3.70312C6.20312 3.64062 6.26562 3.54688 6.26562 3.45312C6.26562 3.35938 6.20312 3.23438 6.14062 3.17188L3.51562 0.609375Z" fill="#FF9000"/>
</svg>
