<svg width="18" height="14" viewBox="0 0 18 14" fill="none" xmlns="http://www.w3.org/2000/svg">
<path d="M17.3125 6.125H13.375V0.4375C13.375 0.21875 13.1562 0 12.9375 0H5.0625C4.81641 0 4.625 0.21875 4.625 0.4375V6.125H0.6875C0.441406 6.125 0.25 6.34375 0.25 6.5625V13.5625C0.25 13.8086 0.441406 14 0.6875 14H17.3125C17.5312 14 17.75 13.8086 17.75 13.5625V6.5625C17.75 6.34375 17.5312 6.125 17.3125 6.125ZM12.5 7H14.25V8.72266L13.375 8.42188L12.5 8.72266V7ZM9.875 0.875V2.59766L9 2.29688L8.125 2.59766V0.875H9.875ZM5.5 0.875H7.25V3.80078L9 3.22656L10.75 3.80078V0.875H12.5V6.125H5.5V0.875ZM5.5 7V8.72266L4.625 8.42188L3.75 8.72266V7H5.5ZM1.125 7H2.875V9.92578L4.625 9.35156L6.375 9.92578V7H8.5625V13.125H1.125V7ZM16.875 13.125H9.4375V7H11.625V9.92578L13.375 9.35156L15.125 9.92578V7H16.875V13.125Z" fill="#ABC0D6"/>
</svg>
