<svg width="20" height="16" viewBox="0 0 20 16" fill="none" xmlns="http://www.w3.org/2000/svg">
<path d="M19.75 11.5H19V8.125C19 7.625 18.7812 7.09375 18.4062 6.71875L15.7812 4.09375C15.4062 3.71875 14.9062 3.5 14.375 3.5H13V1.96875C13 1.15625 12.2812 0.5 11.4375 0.5H1.53125C0.6875 0.5 0 1.15625 0 1.96875V11.0625C0 11.875 0.6875 12.5 1.53125 12.5H2.03125C2 12.6875 2 12.8438 2 13C2 14.4062 3.09375 15.5 4.5 15.5C5.875 15.5 7 14.4062 7 13C7 12.8438 6.96875 12.6875 6.9375 12.5H13.0312C13 12.6875 13 12.8438 13 13C13 14.4062 14.0938 15.5 15.5 15.5C16.875 15.5 18 14.4062 18 13C18 12.8438 17.9688 12.6875 17.9375 12.5H19.75C19.875 12.5 20 12.4062 20 12.25V11.75C20 11.625 19.875 11.5 19.75 11.5ZM14.375 4.5C14.625 4.5 14.875 4.625 15.0625 4.8125L17.6875 7.4375C17.7188 7.46875 17.7188 7.5 17.75 7.53125H13V4.53125H14.375V4.5ZM4.5 14.5C3.65625 14.5 3 13.8438 3 13C3 12.1875 3.65625 11.5 4.5 11.5C5.3125 11.5 6 12.1875 6 13C6 13.8438 5.3125 14.5 4.5 14.5ZM6.46875 11.5C6.03125 10.9062 5.3125 10.5 4.5 10.5C3.6875 10.5 2.96875 10.9062 2.5 11.5H1.53125C1.21875 11.5 1 11.3125 1 11.0625V1.96875C1 1.71875 1.21875 1.5 1.53125 1.5H11.4375C11.75 1.5 12 1.71875 12 1.96875V11.5H6.46875ZM15.5 14.5C14.6562 14.5 14 13.8438 14 13C14 12.1875 14.6562 11.5 15.5 11.5C16.3125 11.5 17 12.1875 17 13C17 13.8438 16.3125 14.5 15.5 14.5ZM15.5 10.5C14.6562 10.5 13.9688 10.9062 13.5 11.5H13V8.5H18V11.5H17.4688C17.0312 10.9062 16.3125 10.5 15.5 10.5Z" fill="#ABC0D6"/>
</svg>
