<svg width="30" height="29" viewBox="0 0 30 29" fill="none" xmlns="http://www.w3.org/2000/svg">
<path d="M1.78489 3.92426V23.1202C1.78489 24.2312 2.23676 25.2368 2.96383 25.9639C3.69429 26.6944 4.69995 27.1462 5.80754 27.1462H18.1133C19.2209 27.1462 20.2266 26.6944 20.957 25.9639C21.6841 25.2368 22.136 24.2278 22.136 23.1202V3.85971L18.9185 7.07715H12.8981L13.6558 6.11565L10.914 7.02958H4.20052L1.78489 3.92426ZM17.794 13.862C17.7566 13.8348 17.7192 13.8042 17.6886 13.7702C17.3896 13.6174 17.0465 13.5324 16.6864 13.5324C16.0816 13.5324 15.5346 13.7736 15.1405 14.1677C14.743 14.5653 14.4984 15.1123 14.4984 15.7204C14.4984 16.3252 14.743 16.8722 15.1371 17.2663C15.5346 17.6638 16.0816 17.9084 16.6864 17.9084C17.2911 17.9084 17.8381 17.6638 18.2356 17.2663C18.6297 16.8722 18.8744 16.3218 18.8744 15.7204C18.8744 15.1157 18.6297 14.5687 18.2356 14.1711C18.1779 14.1134 18.1167 14.059 18.0522 14.0081C17.9672 13.9673 17.8823 13.9197 17.794 13.862ZM18.6501 12.9616C18.7962 13.0126 18.9185 13.0024 19.0306 12.9616C19.2515 12.8767 19.4859 12.6593 19.7101 12.4248C19.9378 12.187 20.3183 12.1802 20.5561 12.4078C20.794 12.6389 20.8007 13.016 20.5697 13.2572C20.2911 13.5494 19.9819 13.8314 19.6116 14.0115C19.9072 14.5109 20.0737 15.0953 20.0737 15.7204C20.0737 16.6547 19.6966 17.5041 19.0816 18.1157C18.4701 18.7272 17.6207 19.1077 16.6864 19.1077C15.752 19.1077 14.9027 18.7272 14.2911 18.1157C13.6796 17.5007 13.299 16.6513 13.299 15.7204C13.299 14.7861 13.6762 13.9401 14.2911 13.3252C14.9061 12.7102 15.7554 12.3297 16.6864 12.3297C17.4168 12.3297 18.0963 12.5641 18.6501 12.9616ZM6.16768 13.7125C6.12351 13.7702 6.07255 13.8212 6.01139 13.862C5.8687 13.9537 5.7294 14.0251 5.5935 14.0794C5.55952 14.1066 5.52895 14.1372 5.49837 14.1677C5.10086 14.5653 4.85624 15.1123 4.85624 15.7204C4.85624 16.3252 5.10086 16.8722 5.49497 17.2663C5.89248 17.6638 6.43948 17.9084 7.04424 17.9084C7.64899 17.9084 8.19599 17.6638 8.5935 17.2663C8.98761 16.8722 9.23223 16.3218 9.23223 15.7204C9.23223 15.1157 8.98761 14.5687 8.5935 14.1711C8.19939 13.7736 7.64899 13.5324 7.04424 13.5324C6.73166 13.5324 6.43608 13.597 6.16768 13.7125ZM4.13597 13.9809C3.79282 13.8008 3.50063 13.5324 3.23223 13.2572C3.0046 13.016 3.01139 12.6389 3.24922 12.4078C3.48704 12.1802 3.86756 12.187 4.0952 12.4248C4.31943 12.6593 4.55386 12.8767 4.7747 12.9616C4.85624 12.9922 4.94457 13.0058 5.0397 12.9888C5.60369 12.5743 6.29678 12.3297 7.04424 12.3297C7.97855 12.3297 8.82453 12.7102 9.43948 13.3252C10.0544 13.9367 10.4316 14.7827 10.4316 15.7204C10.4316 16.6547 10.0544 17.5041 9.43948 18.1157C8.82793 18.7272 7.97855 19.1077 7.04424 19.1077C6.10992 19.1077 5.26054 18.7272 4.64899 18.1157C4.03744 17.5007 3.65692 16.6513 3.65692 15.7204C3.65692 15.0851 3.83019 14.4905 4.13597 13.9809ZM18.7724 28.3829C18.6841 28.3829 18.5992 28.3659 18.5244 28.3286C18.3885 28.3388 18.2526 28.3456 18.1133 28.3456H5.80754C4.3704 28.3456 3.06236 27.7578 2.11785 26.8133C1.16994 25.8654 0.585571 24.5573 0.585571 23.1202V0.428223L4.78489 5.83026H10.7373L17.0703 3.71701L15.3715 5.87783H18.4225L23.3353 0.965029V23.1202C23.3353 24.5607 22.7509 25.8654 21.803 26.8133C21.7215 26.8982 21.6331 26.9764 21.5448 27.0545L21.6399 27.0477C22.6388 26.9492 23.5154 26.8099 24.0861 26.6672C25.4825 26.3206 26.5901 25.4169 27.2696 24.238C27.9695 23.0285 28.2243 21.5335 27.8913 20.0488C27.4972 18.2923 27.5482 16.3184 27.5924 14.6264C27.6331 13.1451 27.6637 11.8914 27.3987 11.392C27.3308 11.2663 27.1405 11.2731 26.7498 11.4837C25.8528 11.9594 25.316 13.4882 25.2515 15.5166C25.1869 17.5381 25.6184 20.0115 26.6479 22.4441C26.777 22.7499 26.6343 23.0998 26.3285 23.2289C26.0261 23.3546 25.6762 23.2119 25.5471 22.9095C24.4463 20.3104 23.9876 17.657 24.0556 15.4792C24.1337 13.0228 24.8981 11.1134 26.1858 10.4271C27.3376 9.81214 28.0306 10.033 28.4519 10.828C28.8698 11.606 28.8325 13.0024 28.7883 14.6536C28.7475 16.2776 28.6966 18.17 29.0601 19.7872C29.461 21.5743 29.1518 23.3784 28.3058 24.8393C27.4701 26.2867 26.1009 27.3976 24.3715 27.8291C23.7532 27.982 22.8189 28.1315 21.7588 28.2368C20.8245 28.3286 19.7849 28.3863 18.7724 28.3829ZM12.6128 20.7759C12.6739 21.0409 12.786 21.2787 12.9763 21.469C13.333 21.8325 13.9718 22.067 15.0216 22.0805C15.3511 22.0805 15.6161 22.3523 15.6161 22.6819C15.6128 23.0115 15.3443 23.2765 15.0114 23.2731C13.6048 23.2595 12.6909 22.8858 12.1201 22.3082C12.0658 22.2504 12.0114 22.1893 11.9604 22.1281C11.9095 22.1893 11.8551 22.2504 11.8007 22.3082C11.23 22.8858 10.316 23.2595 8.90947 23.2731C8.57651 23.2765 8.30811 23.0115 8.30471 22.6819C8.30471 22.3523 8.56972 22.0805 8.89927 22.0805C9.94911 22.067 10.5912 21.8325 10.9446 21.469C11.1348 21.2787 11.247 21.0409 11.3081 20.7759C10.6014 20.6332 10.0952 20.2697 10.0952 19.8382C10.0952 19.2878 10.931 18.8393 11.9604 18.8393C12.9899 18.8393 13.8257 19.2878 13.8257 19.8382C13.8257 20.2697 13.3194 20.6332 12.6128 20.7759ZM16.3092 14.5856C16.9344 14.5856 17.4406 15.0919 17.4406 15.7204C17.4406 16.3456 16.9344 16.8552 16.3092 16.8552C15.6807 16.8552 15.1745 16.3456 15.1745 15.7204C15.1745 15.0919 15.6807 14.5856 16.3092 14.5856ZM7.5063 14.5856C8.13144 14.5856 8.64106 15.0919 8.64106 15.7204C8.64106 16.3456 8.13144 16.8552 7.5063 16.8552C6.87776 16.8552 6.37153 16.3456 6.37153 15.7204C6.37153 15.0919 6.87776 14.5856 7.5063 14.5856Z" fill="#C62F48"/>
</svg>
