<svg  width="13" height="12" viewBox="0 0 13 12" fill="none" xmlns="http://www.w3.org/2000/svg">
<path d="M6.10721 0.876508L4.71073 3.73393L1.55253 4.1851C0.993932 4.27104 0.779088 4.95854 1.18729 5.36674L3.44315 7.57963L2.90604 10.6949C2.8201 11.2535 3.42167 11.6831 3.91581 11.4253L6.73026 9.94291L9.52323 11.4253C10.0174 11.6831 10.6189 11.2535 10.533 10.6949L9.99588 7.57963L12.2517 5.36674C12.6599 4.95854 12.4451 4.27104 11.8865 4.1851L8.74979 3.73393L7.33182 0.876508C7.09549 0.382367 6.36503 0.360883 6.10721 0.876508Z" fill="#E5E8EC" />
</svg>
