<svg width="6" height="11" viewBox="0 0 6 11" fill="none" xmlns="http://www.w3.org/2000/svg">
<path d="M0.340278 5.1964C0.152422 5.38425 0.152423 5.64725 0.302707 5.83511L4.73609 10.1934C4.92395 10.3812 5.22451 10.3812 5.3748 10.1934L5.6378 9.93035C5.82565 9.7425 5.82565 9.4795 5.6378 9.29165L1.80555 5.53454L5.6378 1.73986C5.82565 1.55201 5.82565 1.28901 5.6378 1.10115L5.3748 0.838157C5.22452 0.650302 4.92395 0.650302 4.73609 0.838157L0.340278 5.1964Z" fill="#FF9000"/>
</svg>
